{
    "WORD_GUILDS": "Server",
    "WORD_USERS": "Nutzer",
    "WORD_RAM": "RAM",
    "WORD_UPTIME": "Laufzeit",
    "WORD_HOSTNAME": "Hostname",
    "WORD_PLATFORM": "Plattform",
    "WORD_TYPE": "Typ",
    "WORD_ID": "ID",
    "WORD_JOINED": "Beigetreten",
    "WORD_NICKNAME": "Nickname",
    "WORD_CREATED": "Erstellt",
    "WORD_CANCELED": "Abgebrochen",
    "WORD_CHANNEL": "Kanäle",
    "WORD_COLOR": "Farbe",
    "WORD_ERROR": "Fehler",
    "WORD_HOIST": "Hoist",
    "WORD_MANAGED": "Verwaltet",
    "WORD_MEMBER": "Mitglieder",
    "WORD_MENTIONABLE": "Erwähnbar",
    "WORD_MENTION": "Erwähnung",
    "WORD_ROLES": "Rollen",
    "WORD_NAME": "Name",
    "WORD_NO": "Nein",
    "WORD_OWNER": "Besitzer",
    "WORD_POSITION": "Position",
    "WORD_TOPIC": "Thema",
    "WORD_UNAVAILABLE": "Nicht verfügbar",
    "WORD_YES": "Ja",
    "WORD_HEADS": "Kopf",
    "WORD_TAILS": "Zahl",
    "WORD_WEBSITE": "Webseite",
    "WORD_CONTAINER": "Container",
    "WORD_DEVELOPERS": "Entwickler",
    "WORD_LIBRARY": "Bibliothek",
    "WORD_SERVERS": "Server",
    "WORD_SHARD": "Shard",
    "WORD_VERSION": "Version"
}
