{
    "WORD_PLATFORM": "Plataforma",
    "WORD_HOSTNAME": "Nombre del host",
    "WORD_UPTIME": "Tiempo en línea",
    "WORD_RAM": "Ram",
    "WORD_USERS": "Usuarios",
    "WORD_GUILDS": "Servidores",
    "WORD_CREATED": "Creado",
    "WORD_ID": "ID",
    "WORD_JOINED": "Ingresado",
    "WORD_NICKNAME": "Usuario",
    "WORD_TYPE": "Tipo",
    "WORD_MENTION": "Mención",
    "WORD_ROLES": "Roles",
    "WORD_CANCELED": "cancelado",
    "WORD_CHANNEL": "Canales",
    "WORD_COLOR": "Color",
    "WORD_ERROR": "Error",
    "WORD_HOIST": "Izar",
    "WORD_MANAGED": "Gestionado",
    "WORD_MEMBER": "Miembros",
    "WORD_MENTIONABLE": "Mencionable",
    "WORD_NAME": "Nombre",
    "WORD_NO": "No",
    "WORD_OWNER": "Propietario",
    "WORD_POSITION": "Posición",
    "WORD_TOPIC": "Tema",
    "WORD_UNAVAILABLE": "No disponible",
    "WORD_YES": "Sí",
    "WORD_HEADS": "Jefes",
    "WORD_CONTAINER": "Contenedor",
    "WORD_DEVELOPERS": "Desarrolladores",
    "WORD_LIBRARY": "Biblioteca",
    "WORD_SERVERS": "Servidores",
    "WORD_VERSION": "Versión",
    "WORD_WEBSITE": "Sitio web"
}
