{
    "BENTOCORD_ADV_NOTEXIST": "Commando `{command}` bestaat niet.",
    "BENTOCORD_ADV_NO_RECURSIVE": "Herhalende uitvoering is niet toegestaan.",
    "BENTOCORD_COMMAND_ERROR": "Er is een fout opgetreden tijdens de behandeling van commando: {error}",
    "BENTOCORD_PAGINATION_NAVIGATION": "Typ `<` of `>` om van pagina's te veranderen, `x` om te sluiten, of `p[nummer]` om naar een specifieke pagina te gaan (voorbeeld: `p10`).",
    "BENTOCORD_PAGINATION_PAGE": "Pagina {page}/{total}",
    "BENTOCORD_PING": "Pong!",
    "BENTOCORD_PING_COUNT": "Pong! `{s, number}s {ms, number}ms`",
    "BENTOCORD_PREFIX": "Huidige prefix is `{prefix}`.",
    "BENTOCORD_PREFIX_SET": "Prefix is ingesteld op `{prefix}`.",
    "BENTOCORD_PRESENCE_UPDATED": "Presentie Geüpdatet!",
    "BENTOCORD_PROMPTMANAGER_UNLOAD": "De beheerder is bezig aan het lossen.",
    "BENTOCORD_PROMPT_CANCELED": "Prompt is geannuleerd.",
    "BENTOCORD_PROMPT_CANCELED_MAX_ATTEMPTS": "Maximale onjuiste pogingen.",
    "BENTOCORD_PROMPT_CANCELED_NEW": "Nieuw prompt was geopend.",
    "BENTOCORD_PROMPT_CANCELED_REASON": "Prompt is geannuleerd: {reason}",
    "BENTOCORD_PROMPT_CANCELED_TIMEOUT": "Input time-out.",
    "BENTOCORD_PROMPT_CHOICE": "Gelieve één van de volgende keuzes selecteren:",
    "BENTOCORD_PROMPT_CHOICE_OPTION": "Gelieve één van de volgende opties kiezen voor optie `{option}`:",
    "BENTOCORD_PROMPT_CONFIRM": "Bevestig dat je door wilt gaan [y/n]:",
    "BENTOCORD_PROMPT_MISSING_PERMISSION": "Het lijkt erop dat ik de `{permission}` Discord permissie niet tot mijn beschikking heb. Voor een betere ervaring raad ik je aan om deze permissie voor mij aan te zetten.",
    "BENTOCORD_PROMPT_OPTION": "Voer een input in voor optie `{option}` van type `{type}`:",
    "BENTOCORD_PROMPT_SUBCOMMAND": "Selecteer een subcommando:",
    "BENTOCORD_PROMPT_USAGE": "*Je kan het beantwoorden via berichten of via de `r` commando.*",
    "BENTOCORD_PROMPT_VALIDATE_ERROR": "**De input kon niet worden gevalideerd. Probeer het opnieuw.**",
    "BENTOCORD_SUPPRESSOR_BOT_OWNER": "Je bent niet een bot eigenaar.",
    "BENTOCORD_SUPPRESSOR_CHANNEL_DENIED": "Deze commando is ongeldig in het huidige kanaal.",
    "BENTOCORD_SUPPRESSOR_GUILD": "Deze commando moet in de server worden ingevoerd.",
    "BENTOCORD_SUPPRESSOR_GUILD_ADMIN": "Je bent niet een server beheerder.",
    "BENTOCORD_SUPPRESSOR_GUILD_DENIED": "Deze commando kan niet worden uitgevoerd in de huidige server.",
    "BENTOCORD_SUPPRESSOR_GUILD_OWNER": "Je bent geen server eigenaar.",
    "BENTOCORD_SUPPRESSOR_HALT": "Uitvoering was tijdelijk gestopt bij `{suppressor}`: {message}",
    "BENTOCORD_SUPPRESSOR_ROLE": "Je beschikt niet over de vereiste rollen.",
    "BENTOCORD_SUPPRESSOR_USER_DENIED": "Je mag dit commando niet uitvoeren."
}
