{
    "AVATAR_DIRECT_LINK": "[Tautan]({link})",
    "CHANNELINFO_BITRATE": "Kecepatan Bit Suara",
    "CHANNELINFO_CHANNEL_TYPE": "Tipe Kanal",
    "CHANNELINFO_CONNECTED": "Pengguna yang Terhubung",
    "CHANNELINFO_OVERWRITE": "Izin Menimpa",
    "CHANNELINFO_TEXT": "Teks",
    "CHANNELINFO_VOICE": "Suara",
    "DESCRIPTION_AVATAR": "Menampilkan avatar pengguna",
    "DESCRIPTION_CHANNELINFO": "Menampilkan informasi tentang kanal",
    "DESCRIPTION_FLIPCOIN": "Lempar koin",
    "DESCRIPTION_FORTUNE": "Pesan kue keberuntungan",
    "DESCRIPTION_INFO": "Menampilkan informasi tentang Ayana",
    "DESCRIPTION_INVITE": "Menampilkan informasi terkait undangan",
    "DESCRIPTION_PICK": "Pilih opsi dari beberapa pilihan",
    "DESCRIPTION_RANDOM": "Menampilkan nomor acak dengan dukungan batas atas dan bawah",
    "DESCRIPTION_ROLEINFO": "Menampilkan informasi tentang role",
    "DESCRIPTION_SERVERINFO": "Menampilkan informasi tentang server",
    "DESCRIPTION_SPONGEBOB": "meme mengejek Spongebob; juga meme teks yang kamu berikan",
    "DESCRIPTION_SUPPORT": "Menampilkan tautan undangan untuk kanal dukungan",
    "FORTUNE_ERROR": "Terjadi kesalahan saat mendapatkan kue keberuntungan. Jika Anda memerlukan bantuan lebih lanjut, harap laporkan ini ke server dukungan kami (perintah `support` untuk mendapatkan undangan).",
    "INFO_FOOTER": "*Pencipta Ayana, untuk melihat informasi lebih lanjut tentang semua shard, pakai {prefix}shardinfo",
    "INFO_USEFUL_LINKS": "**Tautan yang berguna**\n[Undang saya]({invite}), [Undangan Minimal]({inviteMin}), [Status Ayana]({status}), [Server Dukungan]({supportInvite}), [Donasi]({donate}), [Twitter]({twitter}), [Facebook]({facebook})",
    "INVITE_ALPHA": "Baiklah :ok_hand:\nUntuk meminta saya bergabung dengan server Anda, silakan klik tautan di bawah ini:\n\n{invite}\n\nCatatan: Jangan berikan Ayana Alpha terlalu banyak izin pada server anda. Dia bisa tidak stabil dan tidak ada jaminan jika dia merusak sesuatu di server Anda.",
    "INVITE_PRO": "Ayana PRO adalah instansi Ayana yang dihosting secara pribadi, eksklusif untuk pendukung Patreon.\nPemutaran kualitas yang lebih tinggi, waktu henti yang lebih sedikit, dan stabilitas yang lebih baik hanyalah beberapa manfaat yang Anda dapatkan.\n\nUntuk mempelajari lebih lanjut atau bergabung, kunjungi {uri}.\nAtau Anda dapat menambahkan Ayana publik di sini {invite}.",
    "INVITE_TEXT": "Baiklah :ok_hand:\nUntuk meminta saya bergabung ke server Anda, silakan pilih salah satu link berikut:\n\nIzin yang Dianjurkan: {invite}\nIzin Minimal: {invitemin}",
    "PICK_DEBUG": "Harap berikan beberapa opsi dengan cara dipisahkan koma: =pick opsi1, opsi2, …",
    "PICK_LARGE_INPUT": "Input dari opsi yang ingin saya pilih terlalu besar.",
    "RANDOM_LIMIT_ERROR": "Batas bawah tidak boleh lebih besar dari batas atas.",
    "RANDOM_RESPONSE": "Nomor acak Anda adalah {num}.",
    "SERVERINFO_CHANNEL_COUNTS": "{text} teks / {voice} suara",
    "SUPPORT_TEXT": "Untuk dukungan, saran, atau bug dengan Ayana, silakan bergabung dengan server dukungan. {support}"
}
