{
    "BENTOCORD_ADV_NOTEXIST": "`{command}` 명령어는 존재하지 않아요.",
    "BENTOCORD_ADV_NO_RECURSIVE": "재귀 실행은 허용되지 않아요.",
    "BENTOCORD_COMMAND_ERROR": "명령을 처리하는 중에 문제가 발생했어요: {error}",
    "BENTOCORD_PAGINATION_NAVIGATION": "`<` 또는 `>` 를 입력해서 페이지를 이동하거나, `x`를 입력하여 닫거나, `p[숫자]`를 입력해서 해당 페이지로 이동할 수 있어요(예. `p10`).",
    "BENTOCORD_PAGINATION_PAGE": "페이지 {page}/{total}",
    "BENTOCORD_PING": "퐁!",
    "BENTOCORD_PING_COUNT": "퐁! `{s, number}s {ms, number}ms`",
    "BENTOCORD_PREFIX": "현재 접두어는 `{prefix}`에요.",
    "BENTOCORD_PREFIX_SET": "접두어가 `{prefix}`로 설정되었어요.",
    "BENTOCORD_PRESENCE_UPDATED": "상태가 업데이트되었어요!",
    "BENTOCORD_PROMPTMANAGER_UNLOAD": "매니저가 언로드되는 중이에요.",
    "BENTOCORD_PROMPT_CANCELED": "명령이 취소되었어요.",
    "BENTOCORD_PROMPT_CANCELED_MAX_ATTEMPTS": "입력 횟수를 초과하셨어요.",
    "BENTOCORD_PROMPT_CANCELED_NEW": "새 명령을 입력하셨어요.",
    "BENTOCORD_PROMPT_CANCELED_REASON": "명령이 취소되었어요: {reason}",
    "BENTOCORD_PROMPT_CANCELED_TIMEOUT": "입력 시간이 초과되었어요.",
    "BENTOCORD_PROMPT_CHOICE": "다음 선택지 중 한 가지를 선택해 주세요:",
    "BENTOCORD_PROMPT_CHOICE_OPTION": "다음 `{option}` 에 대한 선택지 중 한 가지를 선택해 주세요:",
    "BENTOCORD_PROMPT_CONFIRM": "이대로 계속 진행할까요? [y/n]:",
    "BENTOCORD_PROMPT_MISSING_PERMISSION": "제가 `{permission}` 디스코드 권한을 가지고 있지 않은 것 같아요. 보다 나은 사용 경험을 위해 권한을 허가해 주세요.",
    "BENTOCORD_PROMPT_OPTION": "`{option}` 옵션에는 `{type}` 형식의 값을 입력해 주셔야 해요:",
    "BENTOCORD_PROMPT_SUBCOMMAND": "하위 명령어를 선택해 주세요:",
    "BENTOCORD_PROMPT_USAGE": "*메시지나 `r` 명령어를 통해 응답하실 수 있어요.*",
    "BENTOCORD_PROMPT_VALIDATE_ERROR": "**입력을 확인하지 못했어요. 다시 시도해 주세요.**",
    "BENTOCORD_SUPPRESSOR_BOT_OWNER": "봇의 소유자가 아니신 것 같아요.",
    "BENTOCORD_SUPPRESSOR_CHANNEL_DENIED": "이 명령어는 현재 채널에서는 실행하실 수 없어요.",
    "BENTOCORD_SUPPRESSOR_GUILD": "이 명령어는 서버에서 실행되어야 해요.",
    "BENTOCORD_SUPPRESSOR_GUILD_ADMIN": "서버의 관리자가 아니신 것 같아요.",
    "BENTOCORD_SUPPRESSOR_GUILD_DENIED": "이 명령어는 현재 서버에서는 실행하실 수 없어요.",
    "BENTOCORD_SUPPRESSOR_GUILD_OWNER": "서버 주인이 아니신 것 같아요.",
    "BENTOCORD_SUPPRESSOR_HALT": "`{suppressor}`에 의해 명령 실행이 중단되었어요: {message}",
    "BENTOCORD_SUPPRESSOR_ROLE": "필요한 역할을 가지고 있지 않으세요.",
    "BENTOCORD_SUPPRESSOR_USER_DENIED": "이 명령을 실행할 권한이 없어요."
}
