{
    "AVATAR_DIRECT_LINK": "[Direkte link]({link})",
    "CHANNELINFO_BITRATE": "Stemme Bitrate",
    "CHANNELINFO_CHANNEL_TYPE": "Kanaltype",
    "CHANNELINFO_CONNECTED": "Forbundet brugere",
    "CHANNELINFO_OVERWRITE": "Tilladelsesoverskrivelser",
    "CHANNELINFO_TEXT": "Tekst",
    "CHANNELINFO_VOICE": "Stemme",
    "DESCRIPTION_AVATAR": "Fremvis brugers profilbillede",
    "DESCRIPTION_CHANNELINFO": "Fremvis kanalinformation",
    "DESCRIPTION_FLIPCOIN": "Slå plat eller krone",
    "DESCRIPTION_FORTUNE": "Lykkekage beskeder",
    "DESCRIPTION_INFO": "Fremvis informationer om Ayana",
    "DESCRIPTION_INVITE": "Fremvis invitations relaterede informationer",
    "DESCRIPTION_PICK": "Vælg en valgmulighed ud fra adskillige valgmuligheder",
    "DESCRIPTION_RANDOM": "Giver et tal, der kan bestemmes ud fra en øvre og nedre grænse",
    "DESCRIPTION_ROLEINFO": "Fremvis informationer om en rolle",
    "DESCRIPTION_SERVERINFO": "Fremvis serverinformation",
    "DESCRIPTION_SPONGEBOB": "Svampebob gør nar ad meme, memer også teksten du tilføjer",
    "DESCRIPTION_SUPPORT": "Vis invitationslink til support kanalen",
    "FORTUNE_ERROR": "Der opstod en fejl under indlæsningen af lykkekagen. Hvis du har brug for yderligere hjælp, fejlmeld venligst dette i vores support server (`support`-kommandoen for invitationslink).",
    "INFO_FOOTER": "*Ayana-udvikler, For at se flere information om alle shards, brug {prefix}shardinfo",
    "INFO_USEFUL_LINKS": "**Nyttige links:**\n[Inviter mig]({invite}), [Minimal Invite]({inviteMin}), [Ayana Status]({status}), [Support Server]({supportInvite}), [Doner]({donate}), [Twitter]({twitter}), [Facebook]({facebook})",
    "INVITE_ALPHA": "Helt sikkert :ok_hand:\nFor at tilføje mig til din server, klik venligst på linket herunder:\n\n{invite}\n\nBemærk: Giv ikke Ayana Alpha alt for mange tilladelser på din server. Hun kan være ustabil og der er ingen garanti for, at hun ikke ødelægger noget på din server.",
    "INVITE_PRO": "Ayana PRO er en privat hosted instans af Ayana, der er ekslusiv for Patreon støttere.\nHøjere kvalitet på musik, mindre nedetid og højere stabilitet er kun få af de fordele du får.\n\nFor at lære mere om, hvordan du kommer ombord, gå til {uri}.\nAlternativt kan du tilføje den offentlige Ayana her {invite}.",
    "INVITE_TEXT": "Helt sikkert :ok_hand:\nFor at tilføje mig til din server, klik venligst på en af linksne herunder:\n\nAnbefalede tilladelser: {invite}\nMinimale tilladelser: {invitemin}",
    "PICK_DEBUG": "Forsyn venligst adskillige valgmuligheder, adskilt med kommaer: =pick valgmulighed1, valgmulighed2, …",
    "PICK_LARGE_INPUT": "Inputtet af den valgmulighed jeg valgte er for langt.",
    "RANDOM_LIMIT_ERROR": "Nedre grænse kan ikke være højere end øvre grænse.",
    "RANDOM_RESPONSE": "Dit tilfældige tal er {num}.",
    "SERVERINFO_CHANNEL_COUNTS": "{text} tekst / {voice} stemme",
    "SUPPORT_TEXT": "For support, forslag, eller fejl med Ayana, tilslut venligst support serveren: {support}"
}
