{
    "BENTOCORD_ADV_NOTEXIST": "`{command}`は存在しません。",
    "BENTOCORD_ADV_NO_RECURSIVE": "再帰処理は出来ません。",
    "BENTOCORD_COMMAND_ERROR": "コマンドの実行中にエラーが発生しました:{error}",
    "BENTOCORD_PAGINATION_NAVIGATION": "` < ` や ` > `でページを切り替えて、`x`で閉じます。または、`p[数値]`でページへジャンプ(例:`p10`)。",
    "BENTOCORD_PAGINATION_PAGE": "ページ{page}/{total}",
    "BENTOCORD_PING": "ポン!",
    "BENTOCORD_PING_COUNT": "ポン! `{s, number}s {ms, number}ms`",
    "BENTOCORD_PREFIX": "現在のプレフィックスは`{prefix}`です。",
    "BENTOCORD_PREFIX_SET": "プレフィックスが`{prefix}`に設定されました。",
    "BENTOCORD_PRESENCE_UPDATED": "ステータスが更新されました!",
    "BENTOCORD_PROMPTMANAGER_UNLOAD": "マネージャーをアンロード中。",
    "BENTOCORD_PROMPT_CANCELED": "プロンプトがキャンセルされました。",
    "BENTOCORD_PROMPT_CANCELED_MAX_ATTEMPTS": "無効な試行が上限に達しました。",
    "BENTOCORD_PROMPT_CANCELED_NEW": "新しいプロンプトが開始されました。",
    "BENTOCORD_PROMPT_CANCELED_REASON": "プロンプトがキャンセルされました:{reason}",
    "BENTOCORD_PROMPT_CANCELED_TIMEOUT": "入力がタイムアウトしました。",
    "BENTOCORD_PROMPT_CHOICE": "以下の項目から一つを選択してください:",
    "BENTOCORD_PROMPT_CHOICE_OPTION": "以下オプション`{option}`から一つを選択してください:",
    "BENTOCORD_PROMPT_CONFIRM": "続行の可否確認 [y/n]:",
    "BENTOCORD_PROMPT_MISSING_PERMISSION": "Discoordの権限`{permission}`が無いようです。より良い体験を提供するために付与してください。",
    "BENTOCORD_PROMPT_OPTION": "タイプ `{type}` のオプション `{option}` への入力をしてください。",
    "BENTOCORD_PROMPT_SUBCOMMAND": "サブコマンドを選択してください:",
    "BENTOCORD_PROMPT_USAGE": "*メッセージか`r`コマンドで返信出来ます。*",
    "BENTOCORD_PROMPT_VALIDATE_ERROR": "**認証入力に失敗しました。再試行してください。**",
    "BENTOCORD_SUPPRESSOR_BOT_OWNER": "なたはbotのオーナーではありません。",
    "BENTOCORD_SUPPRESSOR_CHANNEL_DENIED": "このコマンドは現在のチャンネルでは実行できません。",
    "BENTOCORD_SUPPRESSOR_GUILD": "このコマンドはサーバー内で実行する必要があります。",
    "BENTOCORD_SUPPRESSOR_GUILD_ADMIN": "あなたはサーバー管理者ではありません。",
    "BENTOCORD_SUPPRESSOR_GUILD_DENIED": "このコマンドは現在のサーバーでは実行できません。",
    "BENTOCORD_SUPPRESSOR_GUILD_OWNER": "あなたはサーバーの所有者ではありません。",
    "BENTOCORD_SUPPRESSOR_HALT": "実行が`{suppressor}`により停止されました:{message}",
    "BENTOCORD_SUPPRESSOR_ROLE": "あなたは必要なロールを持っていません。",
    "BENTOCORD_SUPPRESSOR_USER_DENIED": "あなたはこのコマンドの実行を許可されていません。"
}
