{
    "AYANA_VERSION": "My Version",
    "GUILD_LOCALE_UPDATED": "It's not like I'm happy you told me to talk casually in this server or anything! ( ≧Д≦) ({locale}).",
    "LOCALIZATION_FAILURE": "",
    "LOCALIZATION_FORMAT_FAILURE": "",
    "USER_LOCALE_UPDATED": "It's not like I'm happy you told me to talk casually to you or anything! ( ≧Д≦) ({locale})"
}
